…
    ## Rows: 322
    ## Columns: 4
    ## $ county       <chr> "Bronx", "Bronx", "Bronx", "Bronx", "Bronx", "Bronx", "Br…
    ## $ zip_code     <int> 10451, 10452, 10453, 10454, 10455, 10456, 10457, 10458, 1…
    ## $ file_date    <chr> "7/25/07", "7/25/07", "7/25/07", "7/25/07", "7/25/07", "7…
    ## $ neighborhood <chr> "High Bridge and Morrisania", "High Bridge and Morrisania…

Arrange both datasets to have zip code, county in the first columns

``` r
zipcode_df |> 
  select(zip_code, county, neighborhood, everything())
```

    ## # A tibble: 322 × 4
    ##    zip_code county neighborhood               file_date
    ##       <int> <chr>  <chr>                      <chr>    
    ##  1    10451 Bronx  High Bridge and Morrisania 7/25/07  
    ##  2    10452 Bronx  High Bridge and Morrisania 7/25/07  
    ##  3    10453 Bronx  Central Bronx              7/25/07  
    ##  4    10454 Bronx  Hunts Point and Mott Haven 7/25/07  
    ##  5    10455 Bronx  Hunts Point and Mott Haven 7/25/07  
    ##  6    10456 Bronx  High Bridge and Morrisania 7/25/07  
    ##  7    10457 Bronx  Central Bronx              7/25/07  
    ##  8    10458 Bronx  Bronx Park and Fordham     7/25/07  
    ##  9    10459 Bronx  Hunts Point and Mott Haven 7/25/07  
    ## 10    10460 Bronx  Central Bronx              7/25/07  
    ## # ℹ 312 more rows

``` r
zori_df |> 
  select(zip_code, county, date, rent, everything())
```

    ## # A tibble: 17,284 × 4
    ##    zip_code county date         rent
    ##       <int> <chr>  <chr>       <dbl>
    ##  1    11368 Queens x2015_01_31    NA
    ##  2    11368 Queens x2015_02_28    NA
    ##  3    11368 Queens x2015_03_31    NA
    ##  4    11368 Queens x2015_04_30    NA
    ##  5    11368 Queens x2015_05_31    NA
    ##  6    11368 Queens x2015_06_30    NA
    ##  7    11368 Queens x2015_07_31    NA
    ##  8    11368 Queens x2015_08_31    NA
    ##  9    11368 Queens x2015_09_30    NA
    ## 10    11368 Queens x2015_10_31    NA
    ## # ℹ 17,274 more rows
…
